…
Additionally, we can organize the data set from the aisle with the most
items ordered to the aisle with the least items ordered. Let’s focus on
the aisles with the most items ordered.

``` r
# Grouping by aisle and summarizing the total number of items ordered for the
# aisle arranged from largest to smallest
(most_items_ordered_aisles <- instacart %>%
                                group_by(aisle_id) %>%
                                summarize(items_ordered = n()) %>%
                                arrange(desc(items_ordered)))
```

    ## # A tibble: 134 × 2
    ##    aisle_id items_ordered
    ##       <int>         <int>
    ##  1       83        150609
    ##  2       24        150473
    ##  3      123         78493
    ##  4      120         55240
    ##  5       21         41699
    ##  6      115         36617
    ##  7       84         32644
    ##  8      107         31269
    ##  9       91         26240
    ## 10      112         23635
    ## # … with 124 more rows
…
